{
  "authors": [
    "Christopho"
  ],
  "categories": [
    "Solarus"
  ],
  "creation_date": "2012-04-22",
  "excerpt": "Ça continue ! Voici deux nouveaux épisodes de la soluce vidéo de Zelda Mystery of Solarus.",
  "id": "2012-04-22-solution-du-dedale-d-inferno",
  "image_thumbnail": "../../../../../assets/blog/default_article_thumbnail.jpg",
  "page_override": {
    "meta_description": "",
    "meta_image": "../../../../../assets/images/meta_image_fallback.jpg",
    "meta_title": "Solution du Dédale d'Inferno ",
    "parent": "news",
    "slug": "news/2012-04-22-solution-du-dedale-d-inferno",
    "title": "Solution du Dédale d'Inferno "
  },
  "page_slug": "news/2012-04-22-solution-du-dedale-d-inferno",
  "publish": true,
  "title": "Solution du Dédale d'Inferno "
}