{
  "authors": [
    "Christopho"
  ],
  "categories": [
    "Solarus"
  ],
  "creation_date": "2006-04-29",
  "excerpt": "J'avais annoncé dans une [url=http://www.zelda-solarus.com/index.php?id=514]précédente mise à jour[/url] que le développement de notre projet....",
  "id": "2006-04-29-zelda-mercuris-chest-c-est-reparti",
  "image_thumbnail": "../../../../../assets/blog/default_article_thumbnail.jpg",
  "page_override": {
    "meta_description": "",
    "meta_image": "../../../../../assets/images/meta_image_fallback.jpg",
    "meta_title": "Zelda Mercuris' Chest :  c'est reparti !!!",
    "parent": "news",
    "slug": "news/2006-04-29-zelda-mercuris-chest-c-est-reparti",
    "title": "Zelda Mercuris' Chest :  c'est reparti !!!"
  },
  "page_slug": "news/2006-04-29-zelda-mercuris-chest-c-est-reparti",
  "publish": true,
  "title": "Zelda Mercuris' Chest :  c'est reparti !!!"
}