{
  "authors": [
    "Christopho"
  ],
  "categories": [
    "Solarus"
  ],
  "creation_date": "2006-04-01",
  "excerpt": "Je n'étais pas censé le dévoiler, mais tôt ou tard Christopho aurait tout découvert. J'ai infiltré l'équipe du site il y a 5 ans, et j'ai....",
  "id": "2006-04-01-fini-de-rire",
  "image_thumbnail": "../../../../../assets/blog/default_article_thumbnail.jpg",
  "page_override": {
    "meta_description": "",
    "meta_image": "../../../../../assets/images/meta_image_fallback.jpg",
    "meta_title": "Fini de rire !",
    "parent": "news",
    "slug": "news/2006-04-01-fini-de-rire",
    "title": "Fini de rire !"
  },
  "page_slug": "news/2006-04-01-fini-de-rire",
  "publish": true,
  "title": "Fini de rire !"
}