{
  "authors": [
    "Newlink"
  ],
  "categories": [
    "Solarus"
  ],
  "creation_date": "2018-02-02",
  "excerpt": "Aujourd'hui, nous prenons la direction des terres à l'est du monde de Mercuris' Chest avec cette image d'intrigantes ruines et de ce....",
  "id": "2018-02-02-des-ruines-mysterieuses",
  "image_thumbnail": "../../../../../assets/blog/default_article_thumbnail.jpg",
  "page_override": {
    "meta_description": "",
    "meta_image": "../../../../../assets/images/meta_image_fallback.jpg",
    "meta_title": "Des ruines mystérieuses",
    "parent": "news",
    "slug": "news/2018-02-02-des-ruines-mysterieuses",
    "title": "Des ruines mystérieuses"
  },
  "page_slug": "news/2018-02-02-des-ruines-mysterieuses",
  "publish": true,
  "title": "Des ruines mystérieuses"
}