{
  "authors": [
    "Christopho"
  ],
  "categories": [
    "Solarus"
  ],
  "creation_date": "2004-12-24",
  "excerpt": "Je vous avais promis dans la newsletter une annonce importante concernant Zelda M'C... Eh bien la voici : nous  allons faire une nouvelle version....",
  "id": "2004-12-24-zelda-m-c-la-demo-version-2-0-est-en-preparation",
  "image_thumbnail": "../../../../../assets/blog/default_article_thumbnail.jpg",
  "page_override": {
    "meta_description": "",
    "meta_image": "../../../../../assets/images/meta_image_fallback.jpg",
    "meta_title": "Zelda M'C : la démo version 2.0 est en préparation !",
    "parent": "news",
    "slug": "news/2004-12-24-zelda-m-c-la-demo-version-2-0-est-en-preparation",
    "title": "Zelda M'C : la démo version 2.0 est en préparation !"
  },
  "page_slug": "news/2004-12-24-zelda-m-c-la-demo-version-2-0-est-en-preparation",
  "publish": true,
  "title": "Zelda M'C : la démo version 2.0 est en préparation !"
}