{
  "authors": [
    "Christopho"
  ],
  "categories": [
    "Solarus"
  ],
  "creation_date": "2002-05-05",
  "excerpt": "Je viens de recevoir un e-mail de Matt du site ZELDA ELEMENTS et il m'a \"rappelé\" que je ne devait pas utiliser \"son design\" ! Le plus étrange,....",
  "id": "2002-05-05-changement-de-design-bientot",
  "image_thumbnail": "../../../../../assets/blog/default_article_thumbnail.jpg",
  "page_override": {
    "meta_description": "",
    "meta_image": "../../../../../assets/images/meta_image_fallback.jpg",
    "meta_title": "CHANGEMENT DE DESIGN BIENTOT",
    "parent": "news",
    "slug": "news/2002-05-05-changement-de-design-bientot",
    "title": "CHANGEMENT DE DESIGN BIENTOT"
  },
  "page_slug": "news/2002-05-05-changement-de-design-bientot",
  "publish": true,
  "title": "CHANGEMENT DE DESIGN BIENTOT"
}