{
  "authors": [
    "Christopho"
  ],
  "categories": [
    "Solarus"
  ],
  "creation_date": "2003-01-25",
  "excerpt": "Depuis ce matin, tout le réseau Internet est en plein dérangements à la suite d'une attaque la nuit dernière. Asterochat, qui permet en temps....",
  "id": "2003-01-25-telechargez-mirc-si-vous-n-arrivez-pas-a-venir-sur-le-chat",
  "image_thumbnail": "../../../../../assets/blog/default_article_thumbnail.jpg",
  "page_override": {
    "meta_description": "",
    "meta_image": "../../../../../assets/images/meta_image_fallback.jpg",
    "meta_title": "Téléchargez mIRC si vous n'arrivez pas à venir sur le chat !",
    "parent": "news",
    "slug": "news/2003-01-25-telechargez-mirc-si-vous-n-arrivez-pas-a-venir-sur-le-chat",
    "title": "Téléchargez mIRC si vous n'arrivez pas à venir sur le chat !"
  },
  "page_slug": "news/2003-01-25-telechargez-mirc-si-vous-n-arrivez-pas-a-venir-sur-le-chat",
  "publish": true,
  "title": "Téléchargez mIRC si vous n'arrivez pas à venir sur le chat !"
}