{
  "authors": [
    "Olivier Cléro"
  ],
  "categories": [
    "Games"
  ],
  "creation_date": "2019-09-24",
  "excerpt": "Il y a 2 ans, ZeldoRetro avait créé le chapitre 1 du Défi de Zeldo. Il est désormais disponible publiquement !",
  "id": "article-2019-09-24-zeldo-ch-1-game-release",
  "image_thumbnail": "2019-09-24-zeldo-ch-1-game-release/cover.jpg",
  "page_override": {
    "meta_description": "Il y a 2 ans, ZeldoRetro avait créé le chapitre 1 du Défi de Zeldo. Il est désormais disponible publiquement !",
    "meta_image": "../../../../assets/images/meta_image_fallback.jpg",
    "meta_title": "Sortie du Chapitre 1 du Défi de Zeldo",
    "parent": "news",
    "slug": "news/2019-09-24-zeldo-ch-1-game-release",
    "title": "Sortie du Chapitre 1 du Défi de Zeldo"
  },
  "page_slug": "news/2019-09-24-zeldo-ch-1-game-release",
  "publish": true,
  "title": "Sortie du Chapitre 1 du Défi de Zeldo"
}