{
  "authors": [
    "Christopho"
  ],
  "categories": [
    "Solarus"
  ],
  "creation_date": "2002-02-27",
  "excerpt": "Le site officiel des Alex d'or (www.alexdor.fr.st) vient de communiquer les résultats du concours.\n\nNetgamer et moi sommes fiers de vous présenter....",
  "id": "2002-02-27-les-resultats-des-alex-d-or",
  "image_thumbnail": "../../../../../assets/blog/default_article_thumbnail.jpg",
  "page_override": {
    "meta_description": "",
    "meta_image": "../../../../../assets/images/meta_image_fallback.jpg",
    "meta_title": "Les résultats des Alex d'or",
    "parent": "news",
    "slug": "news/2002-02-27-les-resultats-des-alex-d-or",
    "title": "Les résultats des Alex d'or"
  },
  "page_slug": "news/2002-02-27-les-resultats-des-alex-d-or",
  "publish": true,
  "title": "Les résultats des Alex d'or"
}