{
  "authors": [
    "Christopho"
  ],
  "categories": [
    "Solarus"
  ],
  "creation_date": "2004-01-09",
  "excerpt": "Enfin ! Après des mois de problèmes d'hébergement et de nom de domaine, on y est arrivé ! Comme vous avez pu le constater, nous avons un....",
  "id": "2004-01-09-nouvelle-adresse-www-zelda-solarus-com",
  "image_thumbnail": "../../../../../assets/blog/default_article_thumbnail.jpg",
  "page_override": {
    "meta_description": "",
    "meta_image": "../../../../../assets/images/meta_image_fallback.jpg",
    "meta_title": "Nouvelle adresse : www.zelda-solarus.com",
    "parent": "news",
    "slug": "news/2004-01-09-nouvelle-adresse-www-zelda-solarus-com",
    "title": "Nouvelle adresse : www.zelda-solarus.com"
  },
  "page_slug": "news/2004-01-09-nouvelle-adresse-www-zelda-solarus-com",
  "publish": true,
  "title": "Nouvelle adresse : www.zelda-solarus.com"
}