{
  "excerpt": "Comment envoyer le héros plus haut ou plus bas avec des escaliers et des trous.",
  "id": "book-chapter-solarus-video-tutorial-basics-stairs-and-holes",
  "index": 12,
  "origin_tree": "development/tutorials/solarus-video-tutorial",
  "page_override": {
    "meta_description": "Comment envoyer le héros plus haut ou plus bas avec des escaliers et des trous.",
    "meta_image": "../../../../book/tutorial/solarus-video-tutorial/images/thumbnail.png",
    "meta_title": "Escaliers et trous",
    "parent": "development/tutorials/solarus-video-tutorial",
    "slug": "development/tutorials/solarus-video-tutorial/stairs-and-holes",
    "title": "Escaliers et trous"
  },
  "page_slug": "development/tutorials/solarus-video-tutorial/stairs-and-holes",
  "publish": true,
  "title": "Escaliers et trous"
}
