{
  "authors": [
    "Christopho"
  ],
  "categories": [
    "Solarus"
  ],
  "creation_date": "2019-03-01",
  "excerpt": "Oyez, oyez ! Du nouveau sur Zelda Solarus ! Souvenez-vous : il y a quelques semaines...",
  "id": "2019-03-01-moins-de-zelda-plus-de-solarus",
  "image_thumbnail": "2019-03-01-moins-de-zelda-plus-de-solarus/cover.jpg",
  "page_override": {
    "meta_description": "",
    "meta_image": "../../../../../assets/images/meta_image_fallback.jpg",
    "meta_title": "Moins de Zelda, plus de Solarus",
    "parent": "news",
    "slug": "news/2019-03-01-moins-de-zelda-plus-de-solarus",
    "title": "Moins de Zelda, plus de Solarus"
  },
  "page_slug": "news/2019-03-01-moins-de-zelda-plus-de-solarus",
  "publish": true,
  "title": "Moins de Zelda, plus de Solarus"
}