{
  "authors": [
    "Binbin"
  ],
  "categories": [
    "Solarus"
  ],
  "creation_date": "2018-09-05",
  "excerpt": "En ce nouveau mois de septembre et en cette période troublée par la rentrée des classes, il est temps pour nous de vous donner des nouvelles du....",
  "id": "2018-09-05-l-abime-du-poisson",
  "image_thumbnail": "../../../../../assets/blog/default_article_thumbnail.jpg",
  "page_override": {
    "meta_description": "",
    "meta_image": "../../../../../assets/images/meta_image_fallback.jpg",
    "meta_title": "L'abîme du poisson",
    "parent": "news",
    "slug": "news/2018-09-05-l-abime-du-poisson",
    "title": "L'abîme du poisson"
  },
  "page_slug": "news/2018-09-05-l-abime-du-poisson",
  "publish": true,
  "title": "L'abîme du poisson"
}