{
  "authors": [
    "Nintendo",
    "Auteurs multiples"
  ],
  "downloads": [
    {
      "content": "downloads/any.md",
      "file": "https://gitlab.com/solarus-games/solarus-alttp-pack/-/archive/master/solarus-alttp-pack-master.zip",
      "label": ".zip file",
      "platform": "any",
      "version": "1.6.2"
    }
  ],
  "excerpt": "Tous les outils dont vous avez besoin pour créer un clone de Zelda A Link to the Past.",
  "id": "resource-pack-the-legend-of-zelda-a-link-to-the-past",
  "image_thumbnail": "images/thumbnail.png",
  "licenses": [
    "Propriétaire (usage raisonnable)",
    "GPL v3"
  ],
  "medias": [
    {
      "image": "medias/screen_1.png",
      "thumbnail": "medias/screen_1.png",
      "type": "image"
    },
    {
      "image": "medias/screen_2.png",
      "thumbnail": "medias/screen_2.png",
      "type": "image"
    },
    {
      "image": "medias/screen_3.png",
      "thumbnail": "medias/screen_3.png",
      "type": "image"
    },
    {
      "image": "medias/screen_4.png",
      "thumbnail": "medias/screen_4.png",
      "type": "image"
    },
    {
      "image": "medias/screen_5.png",
      "thumbnail": "medias/screen_5.png",
      "type": "image"
    },
    {
      "image": "medias/screen_6.png",
      "thumbnail": "medias/screen_6.png",
      "type": "image"
    },
    {
      "image": "medias/screen_7.png",
      "thumbnail": "medias/screen_7.png",
      "type": "image"
    },
    {
      "image": "medias/screen_8.png",
      "thumbnail": "medias/screen_8.png",
      "type": "image"
    }
  ],
  "page_override": {
    "meta_description": "Pack de ressources Solarus basé sur Zelda: A Link to the Past (sprites, tilesets, sons, musiques, scripts).",
    "meta_image": "../../../assets/images/meta_image_fallback.jpg",
    "meta_title": "The Legend of Zelda: A Link to the Past",
    "slug": "development/resource-packs/the-legend-of-zelda-a-link-to-the-past",
    "title": "The Legend of Zelda: A Link to the Past"
  },
  "page_slug": "development/resource-packs/the-legend-of-zelda-a-link-to-the-past",
  "publish": true,
  "release_date": "2016-07-27",
  "solarus_version": "1.6.x",
  "source_code": "https://gitlab.com/solarus-games/solarus-alttp-pack",
  "title": "The Legend of Zelda: A Link to the Past",
  "version": "1.6.2"
}
