{
  "authors": [
    "Christopho"
  ],
  "categories": [
    "Solarus"
  ],
  "creation_date": "2013-05-03",
  "excerpt": "The \"I love Lua\" release.\r\n\r\n\r\n\r\nGood news! After a year and a half of hard work, the engine is now considered to be usable to make your own....",
  "id": "2013-05-03-solarus-1-0-0-released",
  "image_thumbnail": "../../../../../assets/blog/default_article_thumbnail.jpg",
  "page_override": {
    "meta_description": "",
    "meta_image": "../../../../../assets/images/meta_image_fallback.jpg",
    "meta_title": "Solarus 1.0.0 released",
    "parent": "news",
    "slug": "news/2013-05-03-solarus-1-0-0-released",
    "title": "Solarus 1.0.0 released"
  },
  "page_slug": "news/2013-05-03-solarus-1-0-0-released",
  "publish": true,
  "title": "Solarus 1.0.0 released"
}