{
  "categories": [
    "Text"
  ],
  "excerpt": "The complete walkthough to beat Mystery of Solarus DX: all the dungeons, items and heart pieces.",
  "id": "book-the-legend-of-zelda-mystery-of-solarus-dx",
  "image_thumbnail": "images/thumbnail.png",
  "page_override": {
    "meta_description": "The complete walkthough to beat Mystery of Solarus DX: all the dungeons, items and heart pieces.",
    "meta_image": "images/thumbnail.png",
    "meta_title": "The Legend of Zelda: Mystery of Solarus DX - Walkthrough",
    "parent": "games/the-legend-of-zelda-mystery-of-solarus-dx",
    "slug": "games/the-legend-of-zelda-mystery-of-solarus-dx/walkthrough",
    "title": "Walkthrough"
  },
  "page_slug": "games/the-legend-of-zelda-mystery-of-solarus-dx/walkthrough",
  "publish": true,
  "section": "walkthrough",
  "title": "Walkthrough"
}