{
  "delegate_entity_type": "resource-pack",
  "has_breadcrumb": true,
  "meta_description": "Solarus Resource pack (sprites, tilesets, sounds, musics, scripts)",
  "meta_image": "../../../assets/images/meta_image_fallback.jpg",
  "meta_title": "Resource Pack",
  "parent": "development/resource-packs",
  "publish": true
}