{
  "categories": [
    "Text"
  ],
  "excerpt": "La solution complète pour terminer Mystery of Solarus DX: tous les donjons, tous les objets et fragments de cœur.",
  "id": "book-the-legend-of-zelda-mystery-of-solarus-dx",
  "image_thumbnail": "images/thumbnail.png",
  "page_override": {
    "meta_description": "La solution complète pour terminer Mystery of Solarus DX: tous les donjons, tous les objets et fragments de cœur.",
    "meta_image": "images/thumbnail.png",
    "meta_title": "The Legend of Zelda: Mystery of Solarus DX - Solution",
    "parent": "games/the-legend-of-zelda-mystery-of-solarus-dx",
    "slug": "games/the-legend-of-zelda-mystery-of-solarus-dx/walkthrough",
    "title": "Solution"
  },
  "page_slug": "games/the-legend-of-zelda-mystery-of-solarus-dx/walkthrough",
  "publish": true,
  "section": "walkthrough",
  "title": "Solution"
}