{
  "excerpt": "How to properly organize your scripts by separating the various features in different files.",
  "id": "book-chapter-solarus-video-tutorial-basics-require",
  "index": 13,
  "origin_tree": "development/tutorials/solarus-video-tutorial",
  "page_override": {
    "meta_description": "How to properly organize your scripts by separating the various features in different files.",
    "meta_image": "../../../../book/tutorial/solarus-video-tutorial/images/thumbnail.png",
    "meta_title": "Organize your code in separate files with require()",
    "parent": "development/tutorials/solarus-video-tutorial",
    "slug": "development/tutorials/solarus-video-tutorial/require",
    "title": "Organize your code in separate files with require()"
  },
  "page_slug": "development/tutorials/solarus-video-tutorial/require",
  "publish": true,
  "title": "Organize your code in separate files with require()"
}
