{
  "authors": [
    "Christopho"
  ],
  "categories": [
    "Solarus"
  ],
  "creation_date": "2009-04-06",
  "excerpt": "Bonsoir à tous, En ce début de printemps, j'ai des nouvelles à vous donner sur le développement du projet. Pas d'annonce fracassante le 1er....",
  "id": "2009-04-06-zelda-solarus-dx-4-images-du-village",
  "image_thumbnail": "../../../../../assets/blog/default_article_thumbnail.jpg",
  "page_override": {
    "meta_description": "",
    "meta_image": "../../../../../assets/images/meta_image_fallback.jpg",
    "meta_title": "Zelda Solarus DX : 4 images du village",
    "parent": "news",
    "slug": "news/2009-04-06-zelda-solarus-dx-4-images-du-village",
    "title": "Zelda Solarus DX : 4 images du village"
  },
  "page_slug": "news/2009-04-06-zelda-solarus-dx-4-images-du-village",
  "publish": true,
  "title": "Zelda Solarus DX : 4 images du village"
}