{
  "authors": [
    "Christopho"
  ],
  "categories": [
    "Solarus"
  ],
  "creation_date": "2007-04-01",
  "excerpt": "Nous avons rétabli le site et le forum à la normale. Bien sûr, tout le monde a vite compris que la version blog du site et le nouveau....",
  "id": "2007-04-01-fin-du-poisson-d-avril-et-mauvaise-nouvelle",
  "image_thumbnail": "../../../../../assets/blog/default_article_thumbnail.jpg",
  "page_override": {
    "meta_description": "",
    "meta_image": "../../../../../assets/images/meta_image_fallback.jpg",
    "meta_title": "Fin du poisson d'avril et mauvaise nouvelle",
    "parent": "news",
    "slug": "news/2007-04-01-fin-du-poisson-d-avril-et-mauvaise-nouvelle",
    "title": "Fin du poisson d'avril et mauvaise nouvelle"
  },
  "page_slug": "news/2007-04-01-fin-du-poisson-d-avril-et-mauvaise-nouvelle",
  "publish": true,
  "title": "Fin du poisson d'avril et mauvaise nouvelle"
}