{
  "authors": [
    "Christopho"
  ],
  "categories": [
    "Solarus"
  ],
  "creation_date": "2007-04-01",
  "excerpt": "J'écris cette news pour faire un point sur les nouveautés car il s'est passé beaucoup de choses aujourd'hui. Dans le but de redonner vie au site,....",
  "id": "2007-04-01-le-point-sur-les-nouveautes",
  "image_thumbnail": "../../../../../assets/blog/default_article_thumbnail.jpg",
  "page_override": {
    "meta_description": "",
    "meta_image": "../../../../../assets/images/meta_image_fallback.jpg",
    "meta_title": "Le point sur les nouveautés",
    "parent": "news",
    "slug": "news/2007-04-01-le-point-sur-les-nouveautes",
    "title": "Le point sur les nouveautés"
  },
  "page_slug": "news/2007-04-01-le-point-sur-les-nouveautes",
  "publish": true,
  "title": "Le point sur les nouveautés"
}