{
  "authors": [
    "Christopho"
  ],
  "categories": [
    "Solarus"
  ],
  "creation_date": "2012-05-20",
  "excerpt": "Voici encore un nouvel épisode de la soluce vidéo de Zelda Mystery of Solarus DX.",
  "id": "2012-05-20-trouvez-votre-chemin-dans-les-montagnes",
  "image_thumbnail": "../../../../../assets/blog/default_article_thumbnail.jpg",
  "page_override": {
    "meta_description": "",
    "meta_image": "../../../../../assets/images/meta_image_fallback.jpg",
    "meta_title": "Trouvez votre chemin dans les montagnes",
    "parent": "news",
    "slug": "news/2012-05-20-trouvez-votre-chemin-dans-les-montagnes",
    "title": "Trouvez votre chemin dans les montagnes"
  },
  "page_slug": "news/2012-05-20-trouvez-votre-chemin-dans-les-montagnes",
  "publish": true,
  "title": "Trouvez votre chemin dans les montagnes"
}