{
  "excerpt": "Migration guide from Solarus 1.2 to Solarus 1.3.",
  "id": "book-chapter-solarus-official-guide-migration-from-v1.2-to-v1.3",
  "image_thumbnail": "images/thumbnail.png",
  "index": 3,
  "origin_tree": "development/tutorials/solarus-official-guide",
  "page_override": {
    "meta_description": "Migration guide from Solarus 1.2 to Solarus 1.3.",
    "meta_image": "../../../../book/tutorial/solarus-official-guide/images/thumbnail.png",
    "meta_title": "From v1.2 to v1.3",
    "parent": "development/tutorials/solarus-official-guide/migration",
    "slug": "development/tutorials/solarus-official-guide/migration/from-v1-2-to-v1-3",
    "title": "From v1.2 to v1.3"
  },
  "page_slug": "development/tutorials/solarus-official-guide/migration/from-v1-2-to-v1-3",
  "publish": true,
  "title": "From v1.2 to v1.3"
}
