{
  "authors": [
    "Christopho"
  ],
  "categories": [
    "Solarus"
  ],
  "creation_date": "2018-12-22",
  "excerpt": "Merry Christmas everyone!\r\n\r\nToday, we are proud to announce the release of Solarus 1.6!",
  "id": "2018-12-22-solarus-1-6-released",
  "image_thumbnail": "2018-12-22-solarus-1-6-released/cover.jpg",
  "page_override": {
    "meta_description": "",
    "meta_image": "../../../../../assets/images/meta_image_fallback.jpg",
    "meta_title": "Solarus 1.6 released",
    "parent": "news",
    "slug": "news/2018-12-22-solarus-1-6-released",
    "title": "Solarus 1.6 released"
  },
  "page_slug": "news/2018-12-22-solarus-1-6-released",
  "publish": true,
  "title": "Solarus 1.6 released"
}