{
  "authors": [
    "Christopho"
  ],
  "categories": [
    "Solarus"
  ],
  "creation_date": "2002-07-28",
  "excerpt": "Regardez-moi ce bel award qu'on a reçu de la part de Mandrag, webmaster de Zelda Heaven ! Notre site a donc été élu dans la catégorie \"meilleure....",
  "id": "2002-07-28-award-zelda-heaven",
  "image_thumbnail": "../../../../../assets/blog/default_article_thumbnail.jpg",
  "page_override": {
    "meta_description": "",
    "meta_image": "../../../../../assets/images/meta_image_fallback.jpg",
    "meta_title": "Award Zelda Heaven",
    "parent": "news",
    "slug": "news/2002-07-28-award-zelda-heaven",
    "title": "Award Zelda Heaven"
  },
  "page_slug": "news/2002-07-28-award-zelda-heaven",
  "publish": true,
  "title": "Award Zelda Heaven"
}