{
  "authors": [
    "Olivier Cléro"
  ],
  "categories": [
    "Solarus",
    "Solarus Labs"
  ],
  "creation_date": "2020-04-01",
  "excerpt": "Supportez Solarus en achetant des goodies officiels sur Spreadshirt.",
  "id": "article-2020-04-01-goodies-shop",
  "image_thumbnail": "images/cover.jpg",
  "page_override": {
    "meta_description": "Supportez Solarus en achetant des goodies officiels sur Spreadshirt.",
    "meta_image": "images/cover.jpg",
    "meta_title": "Vous pouvez désormais acheter des goodies Solarus !",
    "parent": "news",
    "slug": "news/2020-04-01-goodies-shop",
    "title": "Vous pouvez désormais acheter des goodies Solarus !"
  },
  "page_slug": "news/2020-04-01-goodies-shop",
  "publish": true,
  "title": "Vous pouvez désormais acheter des goodies Solarus !"
}
