{
  "authors": [
    "Christopho"
  ],
  "categories": [
    "Solarus"
  ],
  "creation_date": "2013-10-14",
  "excerpt": " Une nouvelle version du moteur Solarus vient de sortir, de même qu'une mise à jour de Zelda Mystery of Solarus DX et de Zelda Mystery of....",
  "id": "2013-10-14-solarus-1-1-disponible",
  "image_thumbnail": "../../../../../assets/blog/default_article_thumbnail.jpg",
  "page_override": {
    "meta_description": "",
    "meta_image": "../../../../../assets/images/meta_image_fallback.jpg",
    "meta_title": "Solarus 1.1 disponible",
    "parent": "news",
    "slug": "news/2013-10-14-solarus-1-1-disponible",
    "title": "Solarus 1.1 disponible"
  },
  "page_slug": "news/2013-10-14-solarus-1-1-disponible",
  "publish": true,
  "title": "Solarus 1.1 disponible"
}