{
  "authors": [
    "Olivier Cléro"
  ],
  "categories": [
    "Website"
  ],
  "creation_date": "2020-02-09",
  "excerpt": "The website now features walkthroughs, and Mystery of Solarus DX is the first to come.",
  "id": "article-2020-02-09-walkthroughs-on-the-website",
  "image_thumbnail": "2020-02-09-walkthroughs-on-the-website/cover.jpg",
  "page_override": {
    "meta_description": "The website now features walkthroughs, and Mystery of Solarus DX is the first to come.",
    "meta_image": "2020-02-09-walkthroughs-on-the-website/cover.jpg",
    "meta_title": "Game walkthroughs on the website",
    "parent": "news",
    "slug": "news/2020-02-09-walkthroughs-on-the-website",
    "title": "Game walkthroughs on the website"
  },
  "page_slug": "news/2020-02-09-walkthroughs-on-the-website",
  "publish": true,
  "title": "Game walkthroughs on the website"
}