{
  "authors": [
    "Christopho"
  ],
  "categories": [
    "Solarus"
  ],
  "creation_date": "2013-04-13",
  "excerpt": "Dix ans qu'on vous parle de ce projet. Il y a eu une démo, il a été recommencé, annulé et maintenant il redémarre. Comment présenter Zelda....",
  "id": "2013-04-13-mercuris-chest-de-nouveau-sur-les-rails",
  "image_thumbnail": "../../../../../assets/blog/default_article_thumbnail.jpg",
  "page_override": {
    "meta_description": "",
    "meta_image": "../../../../../assets/images/meta_image_fallback.jpg",
    "meta_title": "Mercuris' Chest de nouveau sur les rails",
    "parent": "news",
    "slug": "news/2013-04-13-mercuris-chest-de-nouveau-sur-les-rails",
    "title": "Mercuris' Chest de nouveau sur les rails"
  },
  "page_slug": "news/2013-04-13-mercuris-chest-de-nouveau-sur-les-rails",
  "publish": true,
  "title": "Mercuris' Chest de nouveau sur les rails"
}