{
  "authors": [
    "Christopho"
  ],
  "categories": [
    "Solarus"
  ],
  "creation_date": "2013-04-06",
  "excerpt": "Peu à peu, nous sommes en train de transférer tout le contenu de l'ancienne version du site vers la nouvelle. \tLes téléchargements de nos jeux....",
  "id": "2013-04-06-basculement-en-cours",
  "image_thumbnail": "../../../../../assets/blog/default_article_thumbnail.jpg",
  "page_override": {
    "meta_description": "",
    "meta_image": "../../../../../assets/images/meta_image_fallback.jpg",
    "meta_title": "Basculement en cours",
    "parent": "news",
    "slug": "news/2013-04-06-basculement-en-cours",
    "title": "Basculement en cours"
  },
  "page_slug": "news/2013-04-06-basculement-en-cours",
  "publish": true,
  "title": "Basculement en cours"
}