{
  "excerpt": "How to use Legend of Zelda: A Link to the Past graphics and sounds in your quest.",
  "id": "book-chapter-solarus-video-tutorial-basics-zelda-resource-pack",
  "index": 2,
  "origin_tree": "development/tutorials/solarus-video-tutorial",
  "page_override": {
    "meta_description": "How to use Legend of Zelda: A Link to the Past graphics and sounds in your quest.",
    "meta_image": "../../../../book/tutorial/solarus-video-tutorial/images/thumbnail.png",
    "meta_title": "Zelda Resource Pack",
    "parent": "development/tutorials/solarus-video-tutorial",
    "slug": "development/tutorials/solarus-video-tutorial/zelda-resource-pack",
    "title": "Zelda Resource Pack"
  },
  "page_slug": "development/tutorials/solarus-video-tutorial/zelda-resource-pack",
  "publish": true,
  "title": "Zelda Resource Pack"
}
