{
  "authors": [
    "Binbin"
  ],
  "categories": [
    "Solarus"
  ],
  "creation_date": "2018-06-06",
  "excerpt": "Ces derniers temps, nous avons travaillé sur le mapping de la partie est de Cocolint. Je suis certain que vous n'aurez pas de mal à reconnaùtre le....",
  "id": "2018-06-06-les-temples",
  "image_thumbnail": "../../../../../assets/blog/default_article_thumbnail.jpg",
  "page_override": {
    "meta_description": "",
    "meta_image": "../../../../../assets/images/meta_image_fallback.jpg",
    "meta_title": "Les temples",
    "parent": "news",
    "slug": "news/2018-06-06-les-temples",
    "title": "Les temples"
  },
  "page_slug": "news/2018-06-06-les-temples",
  "publish": true,
  "title": "Les temples"
}