{
  "authors": [
    "Christopho"
  ],
  "categories": [
    "Solarus"
  ],
  "creation_date": "2002-01-31",
  "excerpt": "Netgamer vient de fermer son site Oxyd-Online. Ceux qui le visitaient régulièrement savent que c'est vraiment la disparition d'un grand site. De....",
  "id": "2002-01-31-deux-mauvaises-nouvelles",
  "image_thumbnail": "../../../../../assets/blog/default_article_thumbnail.jpg",
  "page_override": {
    "meta_description": "",
    "meta_image": "../../../../../assets/images/meta_image_fallback.jpg",
    "meta_title": "Deux mauvaises nouvelles",
    "parent": "news",
    "slug": "news/2002-01-31-deux-mauvaises-nouvelles",
    "title": "Deux mauvaises nouvelles"
  },
  "page_slug": "news/2002-01-31-deux-mauvaises-nouvelles",
  "publish": true,
  "title": "Deux mauvaises nouvelles"
}