{
  "authors": [
    "Christopho"
  ],
  "categories": [
    "Solarus"
  ],
  "creation_date": "2002-01-05",
  "excerpt": "Jusqu'à maintenant, ZS est hébergé sans trop de problèmes chez FREE parce que je possède un abonnement ainsi que c'est moi ait créé ce compte....",
  "id": "2002-01-05-risque-important",
  "image_thumbnail": "../../../../../assets/blog/default_article_thumbnail.jpg",
  "page_override": {
    "meta_description": "",
    "meta_image": "../../../../../assets/images/meta_image_fallback.jpg",
    "meta_title": "Risque important",
    "parent": "news",
    "slug": "news/2002-01-05-risque-important",
    "title": "Risque important"
  },
  "page_slug": "news/2002-01-05-risque-important",
  "publish": true,
  "title": "Risque important"
}