{
  "authors": [
    "DragonDePlatino"
  ],
  "downloads": [],
  "excerpt": "A NES-inspired resouce pack, originally made for Zelda Classic.",
  "id": "resource-pack-zoria",
  "image_thumbnail": "images/thumbnail.png",
  "licenses": [
    "CC-BY-SA 4.0"
  ],
  "medias": [
    {
      "image": "medias/screen_1.png",
      "thumbnail": "medias/screen_1.png",
      "type": "image"
    },
    {
      "image": "medias/screen_2.png",
      "thumbnail": "medias/screen_2.png",
      "type": "image"
    },
    {
      "image": "medias/screen_3.png",
      "thumbnail": "medias/screen_3.png",
      "type": "image"
    },
    {
      "image": "medias/screen_4.png",
      "thumbnail": "medias/screen_4.png",
      "type": "image"
    }
  ],
  "page_override": {
    "meta_description": "Solarus resource pack for Zoria assets (free sprites and tilesets)",
    "meta_image": "../../../assets/images/meta_image_fallback.jpg",
    "meta_title": "Zoria",
    "slug": "development/resource-packs/zoria",
    "title": "Zoria"
  },
  "page_slug": "development/resource-packs/zoria",
  "publish": false,
  "release_date": "",
  "solarus_version": "1.0.0",
  "source_code": "",
  "title": "Zoria",
  "version": "1.0.0"
}