{
  "authors": [
    "Christopho"
  ],
  "categories": [
    "Solarus"
  ],
  "creation_date": "2008-01-02",
  "excerpt": "Bonjour à tous ! Tout d'abord, permettez-moi de vous souhaiter [b]une bonne et heureuse année 2008[/b], de la part de toute l'équipe de....",
  "id": "2008-01-02-le-forum-jeux-amateurs-evolue",
  "image_thumbnail": "../../../../../assets/blog/default_article_thumbnail.jpg",
  "page_override": {
    "meta_description": "",
    "meta_image": "../../../../../assets/images/meta_image_fallback.jpg",
    "meta_title": "Le forum Jeux Amateurs évolue !",
    "parent": "news",
    "slug": "news/2008-01-02-le-forum-jeux-amateurs-evolue",
    "title": "Le forum Jeux Amateurs évolue !"
  },
  "page_slug": "news/2008-01-02-le-forum-jeux-amateurs-evolue",
  "publish": true,
  "title": "Le forum Jeux Amateurs évolue !"
}