{
  "authors": [
    "Olivier Cléro"
  ],
  "categories": [
    "Games"
  ],
  "creation_date": "2020-07-18",
  "excerpt": "A hommage to Bloodborne in 2D by Max Mraz.",
  "id": "article-2020-07-18-yarntown-game-release",
  "image_thumbnail": "images/cover.jpg",
  "page_override": {
    "meta_description": "A hommage to Bloodborne in 2D by Max Mraz.",
    "meta_image": "images/cover.jpg",
    "meta_title": "Yarntown quest release",
    "parent": "news",
    "slug": "news/2020-07-18-yarntown-game-release",
    "title": "Yarntown quest release"
  },
  "page_slug": "news/2020-07-18-yarntown-game-release",
  "publish": true,
  "title": "Yarntown quest release"
}