{
  "authors": [
    "Christopho"
  ],
  "categories": [
    "Solarus"
  ],
  "creation_date": "2002-06-30",
  "excerpt": "\nVoici le bel award que nous a remis le site BlackSword à la suite de leur test de Zelda : Mystery of Solarus. Le jeu a reçu la note de 4/5 et je....",
  "id": "2002-06-30-award-pour-zs",
  "image_thumbnail": "../../../../../assets/blog/default_article_thumbnail.jpg",
  "page_override": {
    "meta_description": "",
    "meta_image": "../../../../../assets/images/meta_image_fallback.jpg",
    "meta_title": "Award pour ZS",
    "parent": "news",
    "slug": "news/2002-06-30-award-pour-zs",
    "title": "Award pour ZS"
  },
  "page_slug": "news/2002-06-30-award-pour-zs",
  "publish": true,
  "title": "Award pour ZS"
}