{
  "authors": [
    "Christopho"
  ],
  "categories": [
    "Solarus"
  ],
  "creation_date": "2006-06-10",
  "excerpt": "Cela fait depuis quelques semaines que Newlink et moi-même avons repris le travail en ce qui concerne l'intro du jeu. Newlink dessine les....",
  "id": "2006-06-10-zelda-mercuris-chest-deux-nouvelles-images-de-l-intro",
  "image_thumbnail": "../../../../../assets/blog/default_article_thumbnail.jpg",
  "page_override": {
    "meta_description": "",
    "meta_image": "../../../../../assets/images/meta_image_fallback.jpg",
    "meta_title": "Zelda Mercuris' Chest : deux nouvelles images de l'intro !",
    "parent": "news",
    "slug": "news/2006-06-10-zelda-mercuris-chest-deux-nouvelles-images-de-l-intro",
    "title": "Zelda Mercuris' Chest : deux nouvelles images de l'intro !"
  },
  "page_slug": "news/2006-06-10-zelda-mercuris-chest-deux-nouvelles-images-de-l-intro",
  "publish": true,
  "title": "Zelda Mercuris' Chest : deux nouvelles images de l'intro !"
}