{
  "authors": {
    "default_value": "-",
    "is_filter": true,
    "label": "Author",
    "required": true,
    "type": "category"
  },
  "content": {
    "is_filter": false,
    "label": "Content",
    "required": true,
    "type": "content"
  },
  "excerpt": {
    "is_filter": false,
    "label": "Excerpt",
    "required": true,
    "type": "string"
  },
  "downloads": {
    "default_value": false,
    "is_filter": false,
    "label": "Downloads",
    "required": false,
    "type": "downloads"
  },
  "id": {
    "is_filter": false,
    "label": "Id",
    "required": true,
    "type": "string"
  },
  "image_thumbnail": {
    "is_filter": false,
    "label": "Image thumbnail",
    "required": true,
    "type": "image"
  },
  "licenses": {
    "default_value": "-",
    "is_filter": true,
    "label": "License",
    "required": false,
    "type": "category"
  },
  "medias": {
    "default_value": false,
    "is_filter": false,
    "label": "Medias",
    "required": false,
    "type": "media"
  },
  "page_slug": {
    "is_filter": false,
    "label": "Page slug",
    "required": true,
    "type": "url"
  },
  "publish": {
    "is_filter": false,
    "label": "Publish?",
    "required": true,
    "type": "boolean"
  },
  "release_date": {
    "default_value": "-",
    "is_filter": false,
    "label": "Release date",
    "required": false,
    "type": "date"
  },
  "resource_pack": {
    "is_filter": false,
    "label": "Page override",
    "required": true,
    "type": "object"
  },
  "solarus_version": {
    "default_value": "-",
    "is_filter": false,
    "label": "Version de Solarus",
    "required": false,
    "type": "string"
  },
  "source_code": {
    "default_value": "#",
    "is_filter": false,
    "label": "Code source",
    "required": false,
    "type": "string"
  },
  "title": {
    "is_filter": false,
    "label": "Title",
    "required": true,
    "type": "string"
  },
  "version": {
    "is_filter": false,
    "label": "Version",
    "required": true,
    "type": "string"
  }
}