{
  "authors": [
    "Newlink"
  ],
  "categories": [
    "Solarus"
  ],
  "creation_date": "2017-11-27",
  "excerpt": "Chères Solarussiennes, chers Solarussiens, il y a longtemps que nous n'avions pas donné de nouvelles de notre prochaine aventure en cours de....",
  "id": "2017-11-27-mercuris-chest-la-grande-ville-se-remplit",
  "image_thumbnail": "../../../../../assets/blog/default_article_thumbnail.jpg",
  "page_override": {
    "meta_description": "",
    "meta_image": "../../../../../assets/images/meta_image_fallback.jpg",
    "meta_title": "Mercuris' Chest : la grande ville se remplit",
    "parent": "news",
    "slug": "news/2017-11-27-mercuris-chest-la-grande-ville-se-remplit",
    "title": "Mercuris' Chest : la grande ville se remplit"
  },
  "page_slug": "news/2017-11-27-mercuris-chest-la-grande-ville-se-remplit",
  "publish": true,
  "title": "Mercuris' Chest : la grande ville se remplit"
}