{
  "authors": [
    "Christopho"
  ],
  "categories": [
    "Solarus"
  ],
  "creation_date": "2002-10-13",
  "excerpt": "Salut à tous !\n\nLe développement de la démo a beaucoup avancé ces derniers temps, même si c'est encore loin d'être fini. Nous avons déjà....",
  "id": "2002-10-13-zs-2-des-nouvelles-de-la-demo",
  "image_thumbnail": "../../../../../assets/blog/default_article_thumbnail.jpg",
  "page_override": {
    "meta_description": "",
    "meta_image": "../../../../../assets/images/meta_image_fallback.jpg",
    "meta_title": "ZS 2 : des nouvelles de la démo",
    "parent": "news",
    "slug": "news/2002-10-13-zs-2-des-nouvelles-de-la-demo",
    "title": "ZS 2 : des nouvelles de la démo"
  },
  "page_slug": "news/2002-10-13-zs-2-des-nouvelles-de-la-demo",
  "publish": true,
  "title": "ZS 2 : des nouvelles de la démo"
}