{
  "excerpt": "How to set the title, description and other metadata of your quest, visible in the Solarus Launcher.",
  "id": "book-chapter-solarus-video-tutorial-basics-quest-properties",
  "index": 6,
  "origin_tree": "development/tutorials/solarus-video-tutorial",
  "page_override": {
    "meta_description": "How to set the title, description and other metadata of your quest, visible in the Solarus Launcher.",
    "meta_image": "../../../../book/tutorial/solarus-video-tutorial/images/thumbnail.png",
    "meta_title": "The Quest properties",
    "parent": "development/tutorials/solarus-video-tutorial",
    "slug": "development/tutorials/solarus-video-tutorial/quest-properties",
    "title": "The Quest properties"
  },
  "page_slug": "development/tutorials/solarus-video-tutorial/quest-properties",
  "publish": true,
  "title": "The Quest properties"
}
