{
  "excerpt": "How to move map entities but also other objects like surfaces, text surfaces and sprites.",
  "id": "book-chapter-solarus-video-tutorial-basics-movements",
  "index": 20,
  "origin_tree": "development/tutorials/solarus-video-tutorial",
  "page_override": {
    "meta_description": "How to move map entities but also other objects like surfaces, text surfaces and sprites.",
    "meta_image": "../../../../book/tutorial/solarus-video-tutorial/images/thumbnail.png",
    "meta_title": "Movements",
    "parent": "development/tutorials/solarus-video-tutorial",
    "slug": "development/tutorials/solarus-video-tutorial/movements",
    "title": "Movements"
  },
  "page_slug": "development/tutorials/solarus-video-tutorial/movements",
  "publish": true,
  "title": "Movements"
}
