{
  "age": "Adults only",
  "authors": [
    "Metaquarius"
  ],
  "controls": [
    "keyboard",
    "gamepad"
  ],
  "downloads": [
    {
      "content": "downloads/any.md",
      "file": "https://www.dropbox.com/s/e3ifucbwp907afy/osanas_revenge.solarus?dl=1",
      "label": ".solarus file",
      "platform": "any",
      "version": "1.1"
    }
  ],
  "excerpt": "This game is a collection of YanSim memes made for entertainment purposes.",
  "icons": {
    "16x16": "icons/icon_16x16.png",
    "32x32": "icons/icon_32x32.png",
    "64x64": "icons/icon_64x64.png",
    "128x128": "icons/icon_128x128.png"
  },
  "id": "game-osanas-revenge",
  "image_cover": "images/cover.jpg",
  "image_logo": "images/logo.png",
  "image_thumbnail": "images/thumbnail.png",
  "languages": [
    "English"
  ],
  "licenses": [
    "GPL v3",
    "CC-BY-SA 4.0",
    "Proprietary (Fair use)"
  ],
  "medias": [
    {
      "image": "medias/screen_1.png",
      "thumbnail": "medias/screen_1.png",
      "type": "image"
    },
    {
      "image": "medias/screen_2.png",
      "thumbnail": "medias/screen_2.png",
      "type": "image"
    },
    {
      "image": "medias/screen_3.png",
      "thumbnail": "medias/screen_3.png",
      "type": "image"
    },
    {
      "image": "medias/screen_4.png",
      "thumbnail": "medias/screen_4.png",
      "type": "image"
    }
  ],
  "page_override": {
    "meta_description": "This game is a collection of YanSim memes made for entertainment purposes.",
    "meta_image": "images/thumbnail.png",
    "meta_title": "Osana's Revenge",
    "slug": "games/osanas-revenge",
    "title": "Osana's Revenge"
  },
  "page_slug": "games/osanas-revenge",
  "players": 1,
  "publish": true,
  "release_date": "2020-08-10",
  "solarus_version": "1.6.4",
  "website": "#",
  "source_code": "#",
  "states": [
    "Released"
  ],
  "title": "Osana's Revenge",
  "types": [
    "Shooter",
    "Action-RPG"
  ],
  "version": "1.1"
}